file 'srt_seg90_seg_0.mp4
file 'srt_seg90_seg_1.mp4
file 'srt_seg90_seg_2.mp4
file 'srt_seg90_seg_3.mp4
file 'srt_seg90_seg_4.mp4
file 'srt_seg90_seg_5.mp4
file 'srt_seg90_seg_6.mp4
file 'srt_seg90_seg_7.mp4
