-1 -9.977324e-04 -1 
 1104 1.101497e+00 -1
1105 1.102494 1 
1423 1.419773 1
1424 1.420771e+00 -1 
 1948 1.943583e+00 -1
1949 1.944581 1 
2032 2.027392 1
2033 2.028390e+00 -1 
 2138 2.133152e+00 -1
2139 2.134150 1 
2969 2.962268 1
2970 2.963265e+00 -1 
 3964 3.955011e+00 -1
3965 3.956009 1 
4519 4.508753 1
4520 4.509750e+00 -1 
 4800 4.789115e+00 -1
4801 4.790113 1 
5255 5.243084 1
5256 5.244081e+00 -1 
 5469 5.456599e+00 -1
5470 5.457596 1 
5626 5.613243 1
5627 5.614240e+00 -1 
 5752 5.738957e+00 -1
5753 5.739954 1 
5819 5.805805 1
5820 5.806803e+00 -1 
 6023 6.009342e+00 -1
6024 6.010340 1 
6558 6.543129 1
6559 6.544127e+00 -1 
 6644 6.628934e+00 -1
6645 6.629932 1 
6846 6.830476 1
6847 6.831474e+00 -1 
 6945 6.929252e+00 -1
6946 6.930249 1 
7913 7.895057 1
7914 7.896054e+00 -1 
 8318 8.299138e+00 -1
8319 8.300136 1 
8596 8.576508 1
8597 8.577506e+00 -1 
 8850 8.829932e+00 -1
8851 8.830930 1 
9369 9.347755 1
9370 9.348753e+00 -1 
 9531 9.509388e+00 -1
9532 9.510386 1 
10001 9.978322 1
