-1 -9.977324e-04 -1 
 908 9.059411e-01 -1
909 0.906939 1 
1073 1.070567 1
1074 1.071565e+00 -1 
 1201 1.198277e+00 -1
1202 1.199274 1 
1643 1.639274 1
1644 1.640272e+00 -1 
 1736 1.732064e+00 -1
1737 1.733061 1 
1850 1.845805 1
1851 1.846803e+00 -1 
 1946 1.941587e+00 -1
1947 1.942585 1 
2057 2.052336 1
2058 2.053333e+00 -1 
 2169 2.164082e+00 -1
2170 2.165079 1 
2462 2.456417 1
2463 2.457415e+00 -1 
 2543 2.537234e+00 -1
2544 2.538231 1 
2616 2.610068 1
2617 2.611066e+00 -1 
 2730 2.723809e+00 -1
2731 2.724807 1 
3089 3.081995 1
