-1 -0.000998 1 
289 0.288345 1
290 2.893424e-01 -1 
 790 7.882086e-01 -1
791 0.789206 1 
845 0.843084 1
846 8.440816e-01 -1 
 949 9.468481e-01 -1
950 0.947846 1 
1832 1.827846 1
1833 1.828844e+00 -1 
 1947 1.942585e+00 -1
1948 1.943583 1 
2003 1.998458 1
2004 1.999456e+00 -1 
 2137 2.132154e+00 -1
2138 2.133152 1 
2209 2.203991 1
2210 2.204989e+00 -1 
 2299 2.293787e+00 -1
2300 2.294785 1 
2419 2.413515 1
2420 2.414512e+00 -1 
 2534 2.528254e+00 -1
2535 2.529252 1 
2652 2.645986 1
2653 2.646984e+00 -1 
 2782 2.775692e+00 -1
2783 2.776689 1 
3057 3.050068 1
3058 3.051066e+00 -1 
 3161 3.153832e+00 -1
3162 3.154830 1 
3211 3.203719 1
3212 3.204716e+00 -1 
 3296 3.288526e+00 -1
3297 3.289524 1 
3343 3.335419 1
3344 3.336417e+00 -1 
 3449 3.441179e+00 -1
3450 3.442177 1 
3499 3.491066 1
3500 3.492064e+00 -1 
 3648 3.639728e+00 -1
3649 3.640726 1 
3764 3.755465 1
3765 3.756463e+00 -1 
 3953 3.944036e+00 -1
