-1 -9.977324e-04 -1 
 817 8.151474e-01 -1
818 0.816145 1 
1815 1.810884 1
1816 1.811882e+00 -1 
 2265 2.259864e+00 -1
2266 2.260862 1 
2436 2.430476 1
2437 2.431474e+00 -1 
 2746 2.739773e+00 -1
2747 2.740771 1 
4619 4.608526 1
4620 4.609524e+00 -1 
 7312 7.295420e+00 -1
7313 7.296417 1 
8966 8.945669 1
8967 8.946667e+00 -1 
 9548 9.526349e+00 -1
9549 9.527347 1 
10080 10.057143 1
