-1 -9.977324e-04 -1 
 795 7.931973e-01 -1
796 0.794195 1 
1441 1.437732 1
1442 1.438730e+00 -1 
 1615 1.611338e+00 -1
1616 1.612336 1 
1988 1.983492 1
1989 1.984490e+00 -1 
 2220 2.214966e+00 -1
2221 2.215964 1 
2845 2.838549 1
2846 2.839546e+00 -1 
 3557 3.548934e+00 -1
3558 3.549932 1 
4058 4.048798 1
