-1 -9.977324e-04 -1 
 827 8.251247e-01 -1
828 0.826122 1 
1392 1.388844 1
1393 1.389841e+00 -1 
 1491 1.487619e+00 -1
1492 1.488617 1 
1709 1.705125 1
1710 1.706122e+00 -1 
 2093 2.088254e+00 -1
2094 2.089252 1 
3089 3.081995 1
