-1 -9.977324e-04 -1 
 812 8.101587e-01 -1
813 0.811156 1 
1421 1.417778 1
1422 1.418776e+00 -1 
 1636 1.632290e+00 -1
1637 1.633288 1 
2132 2.127166 1
2133 2.128163e+00 -1 
 2615 2.609070e+00 -1
2616 2.610068 1 
3063 3.056054 1
