-1 -9.977324e-04 -1 
 1284 1.281088e+00 -1
1285 1.282086 1 
2161 2.156100 1
2162 2.157098e+00 -1 
 2284 2.278821e+00 -1
2285 2.279819 1 
2391 2.385578 1
2392 2.386576e+00 -1 
 2639 2.633016e+00 -1
2640 2.634014 1 
3979 3.969977 1
