-1 -0.000998 1 
140 0.139683 1
141 1.406803e-01 -1 
 827 8.251247e-01 -1
828 0.826122 1 
1010 1.007710 1
1011 1.008708e+00 -1 
 1110 1.107483e+00 -1
1111 1.108481 1 
1507 1.503583 1
1508 1.504580e+00 -1 
 1599 1.595374e+00 -1
1600 1.596372 1 
1714 1.710113 1
1715 1.711111e+00 -1 
 1809 1.804898e+00 -1
1810 1.805896 1 
1894 1.889705 1
1895 1.890703e+00 -1 
 2222 2.216961e+00 -1
2223 2.217959 1 
2455 2.449433 1
2456 2.450431e+00 -1 
 2543 2.537234e+00 -1
2544 2.538231 1 
3010 3.003175 1
