-1 -0.000998 1 
433 0.432018 1
434 4.330159e-01 -1 
 1139 1.136417e+00 -1
1140 1.137415 1 
1856 1.851791 1
1857 1.852789e+00 -1 
 3382 3.374331e+00 -1
3383 3.375329 1 
4328 4.318186 1
4329 4.319184e+00 -1 
 5984 5.970431e+00 -1
5985 5.971428 1 
7145 7.128798 1
7146 7.129796e+00 -1 
 7323 7.306395e+00 -1
7324 7.307392 1 
8011 7.992835 1
