-1 -9.977324e-04 -1 
 193 1.925624e-01 -1
194 0.193560 1 
1183 1.180317 1
1184 1.181315e+00 -1 
 1423 1.419773e+00 -1
1424 1.420771 1 
1762 1.758005 1
1763 1.759002e+00 -1 
 2313 2.307755e+00 -1
2314 2.308753 1 
2926 2.919365 1
2927 2.920363e+00 -1 
 3048 3.041088e+00 -1
3049 3.042086 1 
3145 3.137868 1
3146 3.138866e+00 -1 
 3251 3.243628e+00 -1
3252 3.244626 1 
3502 3.494059 1
3503 3.495057e+00 -1 
 3610 3.601814e+00 -1
3611 3.602812 1 
3735 3.726531 1
3736 3.727528e+00 -1 
 3834 3.825306e+00 -1
3835 3.826304 1 
3876 3.867211 1
3877 3.868209e+00 -1 
 3984 3.974966e+00 -1
3985 3.975964 1 
4090 4.080726 1
4091 4.081723e+00 -1 
 4352 4.342132e+00 -1
4353 4.343129 1 
4421 4.410975 1
4422 4.411973e+00 -1 
 5341 5.328889e+00 -1
5342 5.329886 1 
6004 5.990386 1
6005 5.991383e+00 -1 
 6152 6.138050e+00 -1
