-1 -9.977324e-04 -1 
 154 1.536508e-01 -1
155 0.154649 1 
823 0.821134 1
824 8.221315e-01 -1 
 1100 1.097506e+00 -1
1101 1.098503 1 
1804 1.799909 1
1805 1.800907e+00 -1 
 1929 1.924626e+00 -1
1930 1.925624 1 
2090 2.085261 1
2091 2.086258e+00 -1 
 2181 2.176054e+00 -1
2182 2.177052 1 
2306 2.300771 1
2307 2.301769e+00 -1 
 3117 3.109932e+00 -1
3118 3.110930 1 
3578 3.569887 1
3579 3.570884e+00 -1 
 3770 3.761451e+00 -1
