-1 -9.977324e-04 -1 
 79 7.882086e-02 -1
80 0.079819 1 
652 0.650522 1
653 6.515193e-01 -1 
 932 9.298866e-01 -1
933 0.930884 1 
1153 1.150385 1
1154 1.151383e+00 -1 
 1262 1.259138e+00 -1
1263 1.260136 1 
1952 1.947574 1
1953 1.948571e+00 -1 
 2052 2.047347e+00 -1
2053 2.048345 1 
2253 2.247891 1
2254 2.248889e+00 -1 
 2339 2.333696e+00 -1
2340 2.334694 1 
2523 2.517279 1
2524 2.518277e+00 -1 
 2615 2.609070e+00 -1
2616 2.610068 1 
2787 2.780680 1
2788 2.781678e+00 -1 
 2937 2.930340e+00 -1
2938 2.931338 1 
3228 3.220680 1
3229 3.221678e+00 -1 
 3334 3.326440e+00 -1
3335 3.327438 1 
3545 3.536962 1
3546 3.537959e+00 -1 
 3706 3.697596e+00 -1
3707 3.698594 1 
3765 3.756463 1
3766 3.757460e+00 -1 
 4617 4.606531e+00 -1
4618 4.607528 1 
4660 4.649433 1
4661 4.650431e+00 -1 
 4948 4.936780e+00 -1
