-1 -9.977324e-04 -1 
 1177 1.174331e+00 -1
1178 1.175329 1 
1907 1.902676 1
1908 1.903673e+00 -1 
 1992 1.987483e+00 -1
1993 1.988481 1 
2108 2.103220 1
2109 2.104218e+00 -1 
 2198 2.193016e+00 -1
2199 2.194014 1 
2315 2.309751 1
2316 2.310748e+00 -1 
 2852 2.845533e+00 -1
2853 2.846531 1 
3338 3.330431 1
3339 3.331429e+00 -1 
 3533 3.524989e+00 -1
3534 3.525986 1 
4350 4.340136 1
4351 4.341134e+00 -1 
 4509 4.498775e+00 -1
4510 4.499773 1 
5714 5.701043 1
5715 5.702041e+00 -1 
 6280 6.265759e+00 -1
6281 6.266757 1 
6554 6.539138 1
6555 6.540136e+00 -1 
 6860 6.844444e+00 -1
6861 6.845442 1 
6964 6.948209 1
