-1 -9.977324e-04 -1 
 760 7.582766e-01 -1
761 0.759274 1 
1202 1.199274 1
1203 1.200272e+00 -1 
 1284 1.281088e+00 -1
1285 1.282086 1 
2697 2.690884 1
2698 2.691882e+00 -1 
 3870 3.861224e+00 -1
3871 3.862222 1 
4294 4.284263 1
4295 4.285261e+00 -1 
 4387 4.377052e+00 -1
4388 4.378050 1 
5053 5.041542 1
