-1 -9.977324e-04 -1 
 1109 1.106485e+00 -1
1110 1.107483 1 
1548 1.544490 1
1549 1.545488e+00 -1 
 1658 1.654240e+00 -1
1659 1.655238 1 
2569 2.563174 1
2570 2.564172e+00 -1 
 3134 3.126894e+00 -1
3135 3.127891 1 
3532 3.523991 1
3533 3.524989e+00 -1 
 3634 3.625760e+00 -1
3635 3.626757 1 
3690 3.681633 1
3691 3.682630e+00 -1 
 3816 3.807347e+00 -1
3817 3.808345 1 
3957 3.948027 1
3958 3.949025e+00 -1 
 4701 4.690340e+00 -1
4702 4.691338 1 
5883 5.869660 1
5884 5.870657e+00 -1 
 6294 6.279728e+00 -1
6295 6.280725 1 
6937 6.921270 1
6938 6.922267e+00 -1 
 7042 7.026032e+00 -1
