-1 -9.977324e-04 -1 
 536 5.347846e-01 -1
537 0.535782 1 
600 0.598639 1
601 5.996372e-01 -1 
 683 6.814513e-01 -1
684 0.682449 1 
939 0.936871 1
940 9.378685e-01 -1 
 1079 1.076553e+00 -1
1080 1.077551 1 
2017 2.012426 1
2018 2.013424e+00 -1 
 2100 2.095238e+00 -1
2101 2.096236 1 
2170 2.165079 1
2171 2.166077e+00 -1 
 2294 2.288798e+00 -1
2295 2.289796 1 
2775 2.768708 1
2776 2.769705e+00 -1 
 3037 3.030113e+00 -1
