-1 -9.977324e-04 -1 
 484 4.829025e-01 -1
485 0.483900 1 
1132 1.129433 1
1133 1.130431e+00 -1 
 1219 1.216236e+00 -1
1220 1.217234 1 
1295 1.292063 1
1296 1.293061e+00 -1 
 1420 1.416780e+00 -1
1421 1.417778 1 
1654 1.650249 1
1655 1.651247e+00 -1 
 1771 1.766984e+00 -1
1772 1.767982 1 
1835 1.830839 1
1836 1.831837e+00 -1 
 2441 2.435465e+00 -1
2442 2.436463 1 
3115 3.107937 1
