-1 -9.977324e-04 -1 
 792 7.902041e-01 -1
793 0.791202 1 
928 0.925896 1
929 9.268934e-01 -1 
 1350 1.346939e+00 -1
1351 1.347937 1 
1813 1.808889 1
1814 1.809887e+00 -1 
 1948 1.943583e+00 -1
1949 1.944581 1 
2012 2.007438 1
2013 2.008435e+00 -1 
 2095 2.090250e+00 -1
2096 2.091247 1 
2182 2.177052 1
2183 2.178050e+00 -1 
 2267 2.261859e+00 -1
2268 2.262857 1 
2966 2.959274 1
2967 2.960272e+00 -1 
 3198 3.190748e+00 -1
3199 3.191746 1 
4719 4.708299 1
4720 4.709297e+00 -1 
 4948 4.936780e+00 -1
