-1 -9.977324e-04 -1 
 112 1.117460e-01 -1
113 0.112744 1 
215 0.214512 1
216 2.155102e-01 -1 
 608 6.066213e-01 -1
609 0.607619 1 
905 0.902948 1
906 9.039456e-01 -1 
 1003 1.000726e+00 -1
1004 1.001723 1 
1387 1.383855 1
1388 1.384853e+00 -1 
 1713 1.709116e+00 -1
1714 1.710113 1 
1981 1.976508 1
1982 1.977506e+00 -1 
 2091 2.086258e+00 -1
2092 2.087256 1 
2246 2.240907 1
2247 2.241905e+00 -1 
 2360 2.354649e+00 -1
2361 2.355646 1 
2794 2.787664 1
2795 2.788662e+00 -1 
 3037 3.030113e+00 -1
