-1 -9.977324e-04 -1 
 1213 1.210249e+00 -1
1214 1.211247 1 
2152 2.147120 1
2153 2.148118e+00 -1 
 2473 2.467392e+00 -1
2474 2.468390 1 
3623 3.614784 1
3624 3.615782e+00 -1 
 4084 4.074739e+00 -1
4085 4.075737 1 
4648 4.637460 1
4649 4.638458e+00 -1 
 4773 4.762177e+00 -1
4774 4.763175 1 
5000 4.988662 1
