-1 -0.000998 1 
306 0.305306 1
307 3.063039e-01 -1 
 902 8.999547e-01 -1
903 0.900952 1 
1146 1.143401 1
1147 1.144399e+00 -1 
 1306 1.303039e+00 -1
1307 1.304036 1 
1903 1.898685 1
1904 1.899683e+00 -1 
 2768 2.761723e+00 -1
2769 2.762721 1 
3304 3.296508 1
3305 3.297506e+00 -1 
 3474 3.466122e+00 -1
3475 3.467120 1 
3638 3.629750 1
3639 3.630748e+00 -1 
 3789 3.780408e+00 -1
3790 3.781406 1 
4228 4.218413 1
4229 4.219410e+00 -1 
 4356 4.346122e+00 -1
4357 4.347120 1 
4883 4.871927 1
4884 4.872925e+00 -1 
 5000 4.988662e+00 -1
