-1 -0.000998 1 
68 0.067846 1
69 6.884354e-02 -1 
 708 7.063946e-01 -1
709 0.707392 1 
805 0.803175 1
806 8.041723e-01 -1 
 939 9.368708e-01 -1
940 0.937868 1 
1118 1.115465 1
1119 1.116463e+00 -1 
 1207 1.204263e+00 -1
1208 1.205261 1 
2002 1.997460 1
2003 1.998458e+00 -1 
 2096 2.091247e+00 -1
2097 2.092245 1 
2454 2.448435 1
2455 2.449433e+00 -1 
 2605 2.599093e+00 -1
2606 2.600091 1 
2783 2.776689 1
2784 2.777687e+00 -1 
 2890 2.883447e+00 -1
2891 2.884444 1 
3010 3.003175 1
