-1 -9.977324e-04 -1 
 606 6.046258e-01 -1
607 0.605624 1 
1044 1.041633 1
1045 1.042630e+00 -1 
 1128 1.125442e+00 -1
1129 1.126440 1 
2031 2.026395 1
2032 2.027392e+00 -1 
 2117 2.112200e+00 -1
2118 2.113197 1 
2391 2.385578 1
2392 2.386576e+00 -1 
 2501 2.495329e+00 -1
2502 2.496326 1 
2604 2.598095 1
2605 2.599093e+00 -1 
 3037 3.030113e+00 -1
