srt_seg1
srt_seg2
srt_seg3
srt_seg4
srt_seg5
srt_seg6
srt_seg7
srt_seg8
srt_seg9
srt_seg10
srt_seg11
srt_seg12
srt_seg13
srt_seg14
srt_seg15
srt_seg16
srt_seg17
srt_seg18
srt_seg19
srt_seg20
srt_seg21
srt_seg22
srt_seg23
srt_seg24
srt_seg25
srt_seg26
srt_seg27
srt_seg28
srt_seg29
srt_seg30
srt_seg31
srt_seg32
srt_seg33
srt_seg34
srt_seg35
srt_seg36
srt_seg37
srt_seg38
srt_seg39
srt_seg40
srt_seg41
srt_seg42
srt_seg43
srt_seg44
srt_seg45
srt_seg46
srt_seg47
srt_seg48
srt_seg49
srt_seg50
srt_seg51
srt_seg52
srt_seg53
srt_seg54
srt_seg55
srt_seg56
srt_seg57
srt_seg58
srt_seg59
srt_seg60
srt_seg61
srt_seg62
srt_seg63
srt_seg64
srt_seg65
srt_seg66
srt_seg67
srt_seg68
srt_seg69
srt_seg70
srt_seg71
srt_seg72
srt_seg73
srt_seg74
srt_seg75
srt_seg76
srt_seg77
srt_seg78
srt_seg79
srt_seg80
srt_seg81
srt_seg82
srt_seg83
srt_seg84
srt_seg85
srt_seg86
srt_seg87
srt_seg88
srt_seg89
srt_seg90
srt_seg91
srt_seg92
srt_seg93
srt_seg94
srt_seg95
srt_seg96
srt_seg97
srt_seg98
srt_seg99
srt_seg100
srt_seg101
srt_seg102
srt_seg103
srt_seg104
srt_seg105
srt_seg106
srt_seg107
srt_seg108
srt_seg109
srt_seg110
srt_seg111
srt_seg112
srt_seg113
srt_seg114
srt_seg115
srt_seg116
srt_seg117
srt_seg118
srt_seg119
srt_seg120
srt_seg121
srt_seg122
srt_seg123
srt_seg124
srt_seg125
srt_seg126
srt_seg127
srt_seg128
srt_seg129
srt_seg130
srt_seg131
srt_seg132
srt_seg133
srt_seg134
srt_seg135
srt_seg136
srt_seg137
srt_seg138
srt_seg139
srt_seg140
srt_seg141
srt_seg142
srt_seg143
srt_seg144
srt_seg145
srt_seg146
srt_seg147
srt_seg148
srt_seg149
srt_seg150
srt_seg151
srt_seg152
srt_seg153
srt_seg154
srt_seg155
srt_seg156
srt_seg157
srt_seg158
srt_seg159
srt_seg160
srt_seg161
srt_seg162
srt_seg163
srt_seg164
srt_seg165
srt_seg166
srt_seg167
srt_seg168
srt_seg169
srt_seg170
srt_seg171
srt_seg172
srt_seg173
srt_seg174
srt_seg175
srt_seg176
srt_seg177
srt_seg178
srt_seg179
srt_seg180
srt_seg181
srt_seg182
srt_seg183
srt_seg184
srt_seg185
srt_seg186
srt_seg187
srt_seg188
srt_seg189
srt_seg190
srt_seg191
srt_seg192
srt_seg193
srt_seg194
srt_seg195
srt_seg196
srt_seg197
srt_seg198
srt_seg199
srt_seg200
srt_seg201
srt_seg202
srt_seg203
srt_seg204
srt_seg205
srt_seg206
srt_seg207
srt_seg208
srt_seg209
srt_seg210
srt_seg211
srt_seg212
srt_seg213
srt_seg214
srt_seg215
srt_seg216
srt_seg217
srt_seg218
srt_seg219
srt_seg220
srt_seg221
srt_seg222
srt_seg223
srt_seg224
srt_seg225
srt_seg226
srt_seg227
srt_seg228
srt_seg229
srt_seg230
srt_seg231
srt_seg232
srt_seg233
srt_seg234
srt_seg235
srt_seg236
srt_seg237
srt_seg238
srt_seg239
srt_seg240
srt_seg241
srt_seg242
srt_seg243
srt_seg244
srt_seg245
srt_seg246
srt_seg247
srt_seg248
srt_seg249
srt_seg250
srt_seg251
srt_seg252
srt_seg253
srt_seg254
srt_seg255
srt_seg256
srt_seg257
srt_seg258
srt_seg259
srt_seg260
srt_seg261
srt_seg262
srt_seg263
srt_seg264
srt_seg265
srt_seg266
srt_seg267
srt_seg268
srt_seg269
srt_seg270
srt_seg271
srt_seg272
srt_seg273
srt_seg274
srt_seg275
srt_seg276
srt_seg277
srt_seg278
srt_seg279
srt_seg280
srt_seg281
srt_seg282
srt_seg283
srt_seg284
srt_seg285
srt_seg286
srt_seg287
srt_seg288
srt_seg289
srt_seg290
srt_seg291
srt_seg292
srt_seg293
srt_seg294
srt_seg295
srt_seg296
srt_seg297
srt_seg298
srt_seg299
srt_seg300
srt_seg301
srt_seg302
srt_seg303
srt_seg304
srt_seg305
srt_seg306
srt_seg307
srt_seg308
srt_seg309
srt_seg310
srt_seg311
srt_seg312
srt_seg313
srt_seg314
srt_seg315
srt_seg316
srt_seg317
srt_seg318
srt_seg319
srt_seg320
srt_seg321
srt_seg322
srt_seg323
srt_seg324
srt_seg325
srt_seg326
srt_seg327
srt_seg328
srt_seg329
srt_seg330
srt_seg331
srt_seg332
srt_seg333
srt_seg334
srt_seg335
srt_seg336
srt_seg337
srt_seg338
srt_seg339
srt_seg340
srt_seg341
srt_seg342
srt_seg343
srt_seg344
srt_seg345
srt_seg346
srt_seg347
